Text-as-Data Fall 2022 - Text as Data Final Project
…
        clean <- tibble(Match = seq_along(Prem_tidy[[i]]),
                        text = Prem_tidy[[i]]) %>%
             unnest_tokens(word, text) %>%
             mutate(Team = Titles[i]) %>%
             select(Team, everything())

        series <- rbind(series, clean)
}

# set factor to keep words in order for team and match
series$Team <- factor(series$Team, levels = rev(Titles))

series

# A tibble: 224,027 × 3
   Team    Match word      
   <fct>   <int> <chr>     
 1 Arsenal     1 a         
 2 Arsenal     1 gabriel   
 3 Arsenal     1 martinelli
 4 Arsenal     1 header    
 5 Arsenal     1 and       
 6 Arsenal     1 a         
 7 Arsenal     1 late      
 8 Arsenal     1 marc      
 9 Arsenal     1 guehi     
10 Arsenal     1 own       
# … with 224,017 more rows
…
