Text-as-Data Fall 2022 - Topic Modelling
…
Code

tidy_dataset <- dataset2 %>% 
  mutate(line=row_number()) %>%  # adding row number
  unnest_tokens(word, content) %>%  # tokenising content column to a 'word' column
  anti_join(stop_words) #removing stop words 

Joining, by = "word"

Code

tidy_dataset %>% count(word, sort=TRUE) # countind word frequency in the tidy_dataset

# A tibble: 15,377 × 2
   word          n
   <chr>     <int>
 1 world       486
 2 people      425
 3 war         351
 4 life        346
 5 time        339
 6 famous      320
 7 including   226
 8 women       171
 9 biography   168
10 oxford      159
# … with 15,367 more rows
…
