Text-as-Data Fall 2022 - Blog Post 4
…
Topic Modelling

I used the topicmodels package to run a Latent Dirichlet Allocation topic model.

##Preparatory steps

To run the model, the data had to be in the form of a document term matrix. First the document feature matrix was converted into a one-token-per-document-per-row table and then this table was converted into a document term matrix.

articles_tidy<-tidy(articles_dfm)
articles_tidy

# A tibble: 201,774 × 3
   document term     count
   <chr>    <chr>    <dbl>
 1 text1    solitary     1
 2 text214  solitary     1
 3 text245  solitary     1
 4 text629  solitary     1
 5 text639  solitary     1
 6 text797  solitary     1
 7 text1099 solitary     1
 8 text1    two-day      1
 9 text311  two-day      1
10 text368  two-day      1
# … with 201,764 more rows
…
The first topic seemed to be about Neeraj Chopra winning the gold medal in javelin throw and PV Sindhu winning the bronze medal in badminton and the second topic seemed to focus on hockey. The third topic just had common terms pertaining to Olympics.

Hence, I ran a search_k function in order to find the optimal number of topics to use to derive a meaningful analysis.

news_lda <- LDA(news_dtm, k = 3, control = list(seed = 2345))
news_lda

A LDA_VEM topic model with 3 topics.

#extracting per-topic-per-word probabilities
news_topics <- tidy(news_lda, matrix = "beta")
news_topics

# A tibble: 67,095 × 3
   topic term         beta
   <int> <chr>       <dbl>
 1     1 solitary 5.64e- 5
 2     2 solitary 1.41e-10
 3     3 solitary 1.26e- 5
 4     1 two-day  5.31e- 5
 5     2 two-day  1.65e- 5
 6     3 two-day  8.99e- 6
 7     1 fixture  4.24e- 5
 8     2 fixture  1.49e-32
 9     3 fixture  3.13e- 5
10     1 great    2.53e- 3
# … with 67,085 more rows
…
Similar to hockey, the sports of javelin throw, wrestling and weightlifting were mentioned in several topics. For the gold medallist Neeraj Chopra, there was also a topic which pertained to his army background. Finally, many of the topics about the winners mention cash prizes from sources such as the government and the term ‘rs’ which stands for rupees which is the Indian currency.

The topic that was popular outside the Indian context (topics 1 and 15), regarding the gymnast Simon Biles and the importance of mental health as she had withdrawn from the Olympics due to mental health concerns.

news_lda25 <- LDA(news_dtm, k = 25, control = list(seed = 2345))
news_lda25

A LDA_VEM topic model with 25 topics.

#extracting per-topic-per-word probabilities
news_topics25 <- tidy(news_lda25, matrix = "beta")
news_topics25

# A tibble: 559,125 × 3
   topic term          beta
   <int> <chr>        <dbl>
 1     1 solitary 3.47e- 25
 2     2 solitary 5.65e-233
 3     3 solitary 4.77e-232
 4     4 solitary 4.00e-231
 5     5 solitary 9.70e-232
 6     6 solitary 2.56e-231
 7     7 solitary 2.56e-233
 8     8 solitary 2.46e-231
 9     9 solitary 2.52e-  4
10    10 solitary 8.94e- 34
# … with 559,115 more rows
…
Since many of the topic models had their top terms as “olympics” or “India”, I wanted to check whether removing these terms would offer a deeper insight into the topics.

#removing some of the common words and then seeing how the topic model looks
articles_dfm_common_rem <- dfm_remove(articles_dfm, c("olympics","olympic","india","indian","tokyo","sports","#tokyo2020","2020","2021","india's"), verbose = TRUE)

removed 10 features

articles_tidy2<-tidy(articles_dfm_common_rem)
articles_tidy2

# A tibble: 195,993 × 3
   document term     count
   <chr>    <chr>    <dbl>
 1 text1    solitary     1
 2 text214  solitary     1
 3 text245  solitary     1
 4 text629  solitary     1
 5 text639  solitary     1
 6 text797  solitary     1
 7 text1099 solitary     1
 8 text1    two-day      1
 9 text311  two-day      1
10 text368  two-day      1
# … with 195,983 more rows
…
This model did make it more clear as to why the word police occured in one of the topics that was about hockey. Topic 15 in the model includes words such as casteist, women’s and hockey which refers to the incident where casteist remarks about women hockey players were made after the women’s team had lost a semifinal.

Moreover, Topic 24 has information that is not related to the Olympics at all, which may indicate that some of the news articles in the dataframe could have had multiple headlines being discussed and gotten mixed up with the Olympics news.

news_lda25_remove <- LDA(news_dtm2, k = 25, control = list(seed = 2345))
news_lda25_remove

A LDA_VEM topic model with 25 topics.

#extracting per-topic-per-word probabilities
news_topics25_remove <- tidy(news_lda25_remove, matrix = "beta")
news_topics25_remove

# A tibble: 558,875 × 3
   topic term         beta
   <int> <chr>       <dbl>
 1     1 solitary 8.63e- 5
 2     2 solitary 2.06e- 4
 3     3 solitary 6.96e-74
 4     4 solitary 6.74e- 5
 5     5 solitary 3.72e-74
 6     6 solitary 9.11e-74
 7     7 solitary 4.09e-74
 8     8 solitary 4.43e-74
 9     9 solitary 7.81e-74
10    10 solitary 3.93e-74
# … with 558,865 more rows
…
