Text-as-Data Fall 2022 - CaitlinRowley - Blog Post 5
…
Rows: 814 Columns: 4
── Column specification ────────────────────────────────────────────────────────
Delimiter: ","
chr (2): Q#, VERBATIM RESPONSE
dbl (2): ID#, CODE

ℹ Use `spec()` to retrieve the full column specification for this data.
ℹ Specify the column types or set `show_col_types = FALSE` to quiet this message.

#rename columns:

names(Survey) <- c('Respondent_ID','Survey_Question', 'Code', 'Open_Ended_Response')
print(Survey)

# A tibble: 814 × 4
   Respondent_ID Survey_Question  Code Open_Ended_Response                      
           <dbl> <chr>           <dbl> <chr>                                    
 1           250 12                  0 "I had it in my vehicle to go hunting, n…
 2           248 28                  0 "None of the above.  I was an employee w…
 3           250 6                   1 "Four of them."                          
 4           250 6                   1 "Four of them."                          
 5           250 7                   1 "My shotgun."                            
 6           250 7                   1 "My shotgun."                            
 7           428 7                   1 "{He said \"no\" to fully automatic weap…
 8           409 8                   1 "If they were used incorrectly."         
 9          1165 9                   1 "Well, yeah, community property."        
10           250 12                  1 "I had it in my vehicle to go hunting, n…
# … with 804 more rows
…
