Text-as-Data Fall 2022 - Blog Post 5
…
I see the problem. That row was not removed when I removed rows with NA values but the change cell contains no information in my DFM because I removed punctuation. I’ll remove that row and see if that fixes the problem.

Code

# remove row 96
CFA_tidy_2 <- subset(CFA_tidy, change !="?")

# save
save(CFA_tidy_2, file = "CFA_tidy_2.RData")

# view to check
print(CFA_tidy_2)

# A tibble: 214 × 5
   id          zip     age income                        change                 
   <chr>       <chr> <dbl> <chr>                         <chr>                  
 1 12978141302 59823    72 Under $25,000                 "More concentration on…
 2 12991074702 59802    29 Between $50,000 and $99,999   "I'd like to see more …
 3 12985165265 59801    60 Between $50,000 and $99,999   "Factual, evidence-bas…
 4 12978197761 59801    61 Between $50,000 and $99,999   "Whatever it takes to …
 5 13020467460 59801    83 Between $35,000 and $49,999   "More competitive pric…
 6 12972697121 59802    56 Between $100,000 and $249,999 "More education about …
 7 12977827881 59803    65 Between $50,000 and $99,999   "Greater focus on loca…
 8 13003104091 59808    29 Between $35,000 and $49,999   "I applaud good food s…
 9 12981080680 59801    54 Between $100,000 and $249,999 "More policies and pro…
10 12977865121 59802    27 Under $25,000                 "An expansion of more …
# … with 204 more rows
…
